{
  "openapi": "3.0.3",
  "info": {
    "version": "1.0.0",
    "title": "Annotation exempel api",
    "description": "Annotation exempel api är ett påhittat api som använder sig av annotations för att skapa metadata för DCAT-AP-SE.",
    "x-dcat": {
      "dcat-dataset": {
        "about": "https://jobstream.api.jobtechdev.se/#Job_Stream",
        "title-sv": "Job Stream API", 
        "title-en": "Job Stream API",       
        "description-sv": "JobStream ger tillgång till alla jobbannonser som är publicerade i Platsbanken, inklusive realtidsinformation om förändringar som sker runt eller i dessa annonser, t.ex. publiceringar, avpubliceringar eller uppdateringar av annonstexter. Det ger möjlighet att ha en egen kopia av alla annonser som publiceras via Arbetsförmedlingen. Det går även att filtrera på yrkes- eller geografiska begrepp. Det kan användas för att skapa en egen sökmotor, eller för olika typer av analys. Annonserna kan hållas uppdaterade via JobStream så att ändringar sparas i den egna databasen, och så att avpublicerade annonser kan hanteras.",        
        "description-en": "JobStream provides access to all job advertisements, published on the Swedish Public Employment Service’s Job board (Platsbanken), including real-time information, related to changes, regarding these advertisements, e.g. publishing or deleting of job posts, or updates of job ads texts.By using this API, it gives the opportunity to make a copy of all the job advertisements, published on the Swedish Public Employment Service’s Job board (Platsbanken). It is also possible to filter by professions and/or themes of geography. Furthermore, it can be used to create an own search engine, or to conduct different types of analysis. The advertisements can be kept up-to-date via JobStream, while changes are saved in the own database, including expired and/or depublished job advertisements. ",           
        "publisher": {
          "about": "https://arbetsformedlingen.se/om-webbplatsen/apier-och-oppna-data#publisherJob_Stream",
          "name": "Arbetsförmedlingen",
          "type": "http://purl.org/adms/publishertype/NationalAuthority",
          "homepage": "www.arbetsformedlingen.se"         
        },

        "contactPoint": {
          "about": "https://www.arbetsformedlingen.se/#contactJob_Stream",
          "name": "Arbetsförmedlingen",
          "type": "Organization",
          "email": "jobtechdev@arbetsformedlingen.se",
          "address": "Elektrogatan 4; 171 54; Solna; Sverige"          
        },
        "keyword-sv": "Jobbannonser",   
        "keyword-en": "Job ads", 
        "theme": "GOVE",        
        "spatialUrl": "https://www.geonames.org/6695072/european-union.html",        
        "landingPage": "https://jobtechdev.se/sv/komponenter/jobstream",
        "licenseurl": "http://creativecommons.org/publicdomain/zero/1.0/",
                           
      
        "accessRights": "Public",        
       
        "distribution": {
          "about": "https://jobstream.api.jobtechdev.se/#distributionJob_Stream",
          "title-sv": "Job Stream Swagger gränsnitt",
          "title-en" : "Job Stream Swagger UI",       
          "description-sv": "Apiet är öppet och kräver ingen API nyckel",
          "description-en":"Try out Job Stream API in swagger, no key required",
          "accessURL": "https://jobstream.api.jobtechdev.se/",                
          "formatMedia": "application/json",  
          "status": "Completed",
          "availability": "Stable",
          "licenseurl": "http://creativecommons.org/publicdomain/zero/1.0/",
          "conformsTo": {
            "about": "https://jobstream.api.jobtechdev.se/swagger.json",
            "title-sv": "Swagger gränsnitt",
            "description-sv": "Swagger gränsnitt för Job Stream API"
           }, 
          "page": {
            "about": "https://gitlab.com/arbetsformedlingen/job-ads/jobsearch-apis/-/blob/main/docs/GettingStartedJobStreamSE.md",
            "title-sv": "Dokumentation",
            "title-en": "Documentation",
            "description-sv": "Kom igång med APIet",
            "description-en": "Get started"
          }                     
        }
      },
        "dcat-dataservice": {
        "about": "https://jobstream.api.jobtechdev.se/#dataserviceJobsearch",
        "title-sv": "Datatjänst JobStream",
        "description-sv": "xx",
        "title-en": "Data service JobStream",
        "description-en": "API for searching job ads",
        "endpointURL": "https://jobstream.api.jobtechdev.se/",
        "endpointDescription": "www.beskrivningDatatjanstC.se",
        "publisher": {
          "about": "https://arbetsformedlingen.se/om-webbplatsen/apier-och-oppna-data/#publisherJobsearch2",
          "name": "Arbetsförmedlingen",
          "type": "NationalAuthority",
          "homepage": "https:/data.arbetsformedlingen.se",
          "mbox": "opendata@arbetsformedlingen.se"
        },
        "contactPoint": {
          "about": "https://arbetsformedlingen.se/om-webbplatsen/apier-och-oppna-data/#contactPointC2",
          "type": "Organization",
          "name": "Arbetsförmedlingen",
          "email": "opendata@arbetsformedlingen.se",
          "phone": "1234567",
          "address": "Elektrogatan 4; 171 54; Solna; Sverige"
        },
        "type": "REST",
        "keyword-sv": " datatjänst",
        "theme": "http://publications.europa.eu/resource/authority/data-theme/GOVE",
        "conformsTo": {
          "about": "https://jobsearch.api.jobtechdev.se/swagger.json",
          "title-sv": "Swagger",
          "description-sv": "API:et är öppet och kräver ingen API nyckel eller registrering"
        },
        "servesDataset": "https://jobstream.api.jobtechdev.se/#datasetJobsearch",
        "licensedoc": {
          "about": "http://creativecommons.org/publicdomain/zero/1.0/",
          "title-sv": "CC0",
          "description-sv": "Du får kopiera, modifiera, distribuera och framföra verket, även i kommersiellt syfte, utan att fråga om lov."
        },
        "accessRights": "Public",
        "landingPage": "https://arbetsformedlingen.se/om-webbplatsen/apier-och-oppna-data"
        
      }       
     }      
    },
  
  "paths": {
    "/users": {
      "get": {
        "description": "Fake API description. Only in this file to show where the rest of the api definition would be located.",
        "responses": {
          "200": {
            "description": "Fake 200 response"
          }
        }
      }
    }
  }
}
