{
  "openapi": "3.0.3",
  "info": {
    "version": "1.0.0",
    "title": "Annotation exempel api",
    "description": "Annotation exempel api är ett påhittat api som använder sig av annotations för att skapa metadata för DCAT-AP-SE.",
    "x-dcat": {
      "dcat-dataset": {
        "about": "https://arbetsformedlingen/#JobAd_Links",
        "title-sv": "JobAdLinks API",
        "title-en": "JobAdLinks Job API",
        "description-sv": "API:et JobAd Links har utvecklats genom ett samarbete med Sveriges största annons- och matchningsaktörer som fritt delar med sig av jobbannonsdata i ett gemensamt digitalt ekosystem. JobAd Links är ett sök-API med stöd för fritextsökning och filter. Det ger tillgång till praktiskt taget alla jobbannonser på marknaden och möjliggör för användare att söka bland hela arbetsmarknadens utbud av annonser.",
        "description-en": "The API JobAd Links has been developed in a collaboration with Sweden's largest advertising and matching actors, which share job advertisements data free of charge in a common digital ecosystem. JobAd Links is a search API, supporting free text search and filters. Generally, it provides access to all job advertisements on the market and enables it for users to search among the entire labour market's range of advertisements. ",
        "publisher": {
          "about": "https://arbetsformedlingen.se#publisherJobAd_Links",
          "name": "Arbetsförmedlingen",
          "type": "http://purl.org/adms/publishertype/NationalAuthority",
          "homepage": "www.arbetsformedlingen.se"         
        },
       
        "contactPoint": {
          "about": "https://www.arbetsformedlingen.se/#contactJobAd_Links",
          "name": "Arbetsförmedlingen",
          "type": "Organization",
          "email": "opendata@arbetsformedlingen.se",
          "address": "Elektrogatan 4; 172 54; Solna; Sverige",
          "phone": "00000"
        },
        "keyword-sv": "jobbannonser; annonser; arbetsmarknad; platsbanken; kompetens",
        "keyword-en": "job ads; vacancies; labour market; platsbanken",
        "theme": "GOVE",
        "issued": "2023-03-15",
        "language": "http://publications.europa.eu/resource/authority/language/SWE",
        "spatialUrl": "https://www.geonames.org/6695072/european-union.html",
        "landingPage": "https://www.jobtechdev.se/en/components/jobad-links",
        "licenseurl": "http://creativecommons.org/publicdomain/zero/1.0/",        
        "temporal": {
          "startDate": "2023-03-15"
          
        },
        "accessRights": "Public",        
       
        "distribution": {
          "about": "https://links.api.jobtechdev.se/#distributionJobAd_Links",
          "title-sv": "JobAd Links Swagger gränsnitt",
          "title-en" : "JobAd Links Swagger UI",       
          "description-sv": "Utforska APIet JobAd Links via Swaggergränsnitt",
          "description-en": "Explore the JobAd Links API via Swagger Interface ",
          "accessURL": "https://links.api.jobtechdev.se/",      
          "formatMedia": "application/json",
          "accessService": "https://links.api.jobtechdev.se/#dataserviceJobAd_Links",
          "status": "Completed",
          "availability": "Stable",
          "licenseurl": "http://creativecommons.org/publicdomain/zero/1.0/",
          "conformsTo": {
            "about": "https://links.api.jobtechdev.se/swagger.json",
            "title-sv": "API Gränsnitt",
            "description-sv": "Testa API i Swagger"
            },      
          "page": {
            "about": "https://gitlab.com/arbetsformedlingen/joblinks/wiki/-/wikis/home",
            "title-sv": "Dokumentation",
            "title-en": "Documentation",
            "description-sv": "Kom igång med APIet",
            "description-en": "Get started"
          }
          
        }
      },
      "dcat-dataservice": {
        "about": "https://links.api.jobtechdev.se/#dataserviceJobAd_Links",
        "title-sv": "Datatjänst JobAd_links",
        "description-sv": "API JobAd links API extraherar relevant arbetsmarknadsdata från jobbannonstexter.",
        "title-en": "Data service JobAd_links",
        "description-en": "JobAd links API extracts relevant labor market data from job ad texts.",
        "endpointURL": "https://links.api.jobtechdev.se/",
        
        "publisher": {
          "about": "https://links.api.jobtechdev.se/#publisherJobAd_links2",
          "name": "Arbetsförmedlingen",
          "type": "NationalAuthority",
          "homepage": "https://arbetsformedlingen.se/om-webbplatsen/apier-och-oppna-data",
          "mbox": "opendata@arbetsformedlingen.se"
        },
        "contactPoint": {
          "about": "https://www.arbetsformedlingen.se/#JobAd_links2",
          "type": "Organization",
          "name": "Arbetsförmedlingen",
          "email": "opendata@arbetsformedlingen.se",         
          "address": "Elektrogatan 4; 171 54; Solna; Sverige"
        },
        "type": "REST",
        "keyword-sv": "datatjänst",
        "theme": "http://publications.europa.eu/resource/authority/data-theme/GOVE",
       
        "servesDataset": "https://links.api.jobtechdev.se/#datasetJobAd_links",
        "licenseurl": "http://creativecommons.org/publicdomain/zero/1.0/",
        "accessRights": "Public",
        "landingPage": "https://arbetsformedlingen.se/om-webbplatsen/apier-och-oppna-data"
        
      }     
      
    }
  },
  "paths": {
    "/users": {
      "get": {
        "description": "Fake API description. Only in this file to show where the rest of the api definition would be located.",
        "responses": {
          "200": {
            "description": "Fake 200 response"
          }
        }
      }
    }
  }
}